                00                                    03             04         05             06          07              08             09         I0              IZ              12         13              14         15             16
                                                      20             21         22             23          24              25             26         27              28              29         30              31         32             33
                 17
                 34                                   37             38         39             40          41              42             43             4           45              46         47              48         49             50
                 51                                   54             55         56             57          58              59             60         61              62              63         64              65         66             67
                 68                                   71             72         73             74              5           76             77         78              79              80         81              82         83             84
                                                      88             89         90             91              2           93             94         95              96              97         98              99
                 85




                                                                  
00 59165 39082 16907 32543 17906 65371 39014 47382 11657 34653 29817 49072 35427 07806 50087 51743 40024                                                                 
01 27648 15906 34345 36527 70819 43523 69816 38765 31908 34325 71618 48790 54370 11769 49072 37628 69043
02 37691 24325 17071 50069 54655 61817 38973 50190 63245 77816 49025 41985 44653 28907 46325 67890 32543
03 01501 45976 39081 33324 69173 36732 90675 37618 44325 97543 61387 34532 78564 49832 51718 35556 82310                                                 
04 46324 88790 43652 86548 31%0  46532 79084 46584 31879 37642 11089 47234 10001 64352 96706 38769 44564                                                
05 53674 39179 35326 18179 55764 59081 54365 38917 33427 16091 44536 83245 0980? 31708 38115 00463 14832                                                     
06 08590 35462 79180 40141 58790 54554 78345 28790 52651 37651 58972 46553 71845 84365 33568 90821 59181                                    
07 33678 42543 90865 47891 00087 41617 24537 69845 16661 80517 44726 86901 1701? 22655 07509 27573 17956
08 48390 32332 68451 83879 41901 76543 71594 74387 97183 2%45  17690 46537 73542 58971 44354 74538 92478
09 37289 51879 64365 38572 17809 53654 79435 39803 21648 77658 79959 39018 47628 40939 04015 26487 49301
I0 37287 49814 27684 43769 31980 64376 29871 93658 79978 33130 57376 08001 63871 28756 49032 47681 37895
II 72390 61376 85981 53267 49465 15326 49087 14984 36518 93452 1805? 86758 00587 3001? 63427 47925 14856
12 37116 45816 17181 76819 42447 86915 57342 69180 57637+48489 06741 86590 47638 38590 53478 17654 92108
13 84538 44634 21790 57638 61832 19036 37287 14806 08352 10594 37807 47391 40222 07859 03546 34265 98543
14 98435 21890 57632 69843 31807 75465 75463 18188 50825 68159 44653 27869 51398 06017 30152 26574 13870
15 92437 14874 28111 40832 48569 64587 31807 58724 39847 41760 65752 87950 15643 37623 90865 41611 59234
16 55679 03532 68465 31889 15464 3365? 17098 46543 93817 27605 36678 55465 84365 21890 40910 05473 21791
17 86456 37691 34354 26547 68109 46532 68908 23678 93542 15806 37693 21589 45638 74873 98065 37650 85389
18 01685 35713 87905 41151 76668 40946 26547 14903 54761 08097 61838 09864 31275 69465 37658 01987 45133
19 53617 26596 17081 51181 43265 89567 10001 47839 56321 69463 45683 59254 51806 53476 69)43 37689 16196
20 35172 54768 06984 13879 53476 587S3 10107 46342 85908 47239 17181 53652 58435 38790 04657 35243 89045
21 38748 33674 53276 15489 457% 93180 96365  64372 69846 74879 35432 60817 58456 73452 3%70 15837 41711
22 45643 80967 54353 79543 37890 63764 21718 94768 40187 57587 49280 50187 37685 49281 47865 $6482 98991
23 15745 38790 68453 69265 56781 90018 67371 06685 30106 46362 07213 00064 62386 47676 69140 54653 37628
24 58735 39170 57432 46871 4463? 02981 14734 36890 14563 59281 83654 319081 73452 28908 16187 48376 49832
25 37985 43652 57198 07857 31872 10109 57438 29805 41387 74179 63765 38176 58732 36197 69056 46342 28179
26 97564 68312 55564 71800 58326 81190 61411 68145 51894 63427 48743 50287 69845 31768 01879 45432 57689
27 38754 13903 36527 83465 9801? 25436 65873 316% 57634 84906  53701 44657 38563 90086 35426 38070 55678
28 90564 38794 31705 63487 00560 48062 05931 58417 17345 29564 57387 49052 48794 34354 18019 54376 11908
2y 221% 40132 578% 14352 18708 51846 45632  79043 76743 93452 47108 53652 79856 33433 63768 17956 75431
30 46379 40030 46437 82176 37869 5362? 18756 63890 51376 38901 13425 74587 35465 9(7745 00871 36542 69567
31 54769 46531 76109 48769 92453 58176 47695 37608 43532 691315 43576 84763 51118 46556 85632 90187 43657
32 04098 32176 57387 41098 41713 26534 91056 40729 58794 36171 45423 96845 45326 57894 31889 53342 66767
33 14637 76743 38179 03571 17106 53872 21308 53769 47934 54€37 01980 47632 69835 54671 57324 17690 69365
34 48769 30187 35462 26789 01671 46834 44544 58234 18795 41769 48463 10675 73254 89078 54365 37891 49032
35 37685 31099 47627 84658 98465 131769 65019 06481 13433 70983 22424 63714 48790 62759 15324 00608 46667
36 36573 36784 17645 38463 41101 51254 89674 43679 31084 53725 59081 47638 64358 15905 75465 39801 73591
37 46234 16980 51734 51760 71354 27645 85879 53654 26579 90132 46367 57864 32879 54675 14674 38971
38 39574 83908 64173 44679 20118 44567 96234 80185 48690 54368 47654 59035 74931 35469 14352 71853
39 44008 53547 64368 90136 54879 34445 62232 70936 01800 56873 W45 38745 98910 53426 54365 38918 75643                                                            
40 53678 34690 43254 78901 54376 37342 69081 17189 47308 41829 01683 09170 46031 69846 31693 43657 38790
41 65342 67158 46173 65879 4354? 5924 76854 38790 14634 27654 I8090 46437 34276 79064 69081 44344 71610
42 91432 I4104 26758 31790 43654 72981 40136 64879 36532 69083 36784 58718 94901 34798 74957 01275 06376
43 46342 79091 47635 83760 47628 67490 04737 71803 53764 27175 83980 54873 27656 98737 43652 98643 41806
44 36173 82789 30186 74981 58030 01345 47298 08547 14081 83456 65179 46527 38679 56347 59908 46532 37681
45 86908 35470 26476 89016 64325 87954 31817 59843 53658 72980 37453 98107 41587 03527 55363 48739 91087
46 54446 71473 72437 97836 41749 37648 5556? 53276 85908 56342 58905 3890I 63427 84536  16578 57904 73245
47 46748 21080 07956 43554 13576 00913 35468 62179 15/36 94651 00869 46753 31618 58345 90999 51436 83424
48  17435 63287 86908 53659 75689 34332 50118 69835 41325 48799 65774 52218 89054 73246 89473 50809 61983
49 26781 05649 41765 39081 29076 36532 79018 36524 SCSI 41716 46538 47691 35427 59018 53653 28971 47903
