      00     CI ! 02     03   04     05   06     07     08   09     IQ   II     12   13     14     15
      17     18   19     20   21     22   23     24     25   26     27   28     29   30     31     32
      34     35   36     37   38     39   40     41     42   43     44   45     46   47     48     49
      51     52   53     54   55     56   57     58     59   60     61   62     63   64     65     66
      68     69   70     71   72     73   74     75     76   77     78   79     80   81     82     83
      85     d61  87     88   89     90   91     92     93   94     95   96     97   98     99


50 05675 37632 48790 35423 78691 51543 17954 36581 32543 47896 47635 51768 49083 35426 47683 49082 43557
51 76819 35426 48179 57634 57686 31769 36528 10718 00674 37691 35426 87906 43653 25890 46342 49801 65164
52 37698 30153 27896 36587 31608 37658 01467 39082 26897 15461 50517 35427 6%34 67014 87583  37856 01532
53 643795 15342 65873 39801 57432 59835 63126 06476 39853 216% WWI 51801 46019 54763 28791 60146 36387
54 49714 27684 01918 17899 47632 76905 37984 36548 62590 74589 04325 67432 69801 43443 94678 53462 87431
55 11876 40193 27159 68453 49901 53268 69476 14762 28971 10100 54738 33317 58703 24264 78518 47432 99069 I
56 58743 69487 35417 37853 21657 48734 49332 69891 01432 37865 38917 40137 49218 57432 89076 47387 41312
57 38790 10435 73425 08946 57543 87453 59301 64573 47381 47632 90187 47158 37693 65743 37680 85485 25491
58 68793 71475 35481 0190e 65473 36139 36854 46566 49080 75673 27148 90001 51614 37693 27569 68465 47018
59 754% 15638 65835 38%0 55614 48793 41018   65845 21790 55637 14768 01843 25147 77759 51141 46382 30817
60 47619 14762 37089 56412 11758 66843 30925  67787 48891 06705 47%2 51547 94376 26890 14563  66784 31867
61 89156 33345 14653 68910 46753 80196 54160  14532 69855 40/75 44674 38470 75942 54768 76767 84691 63434
62 37815 3'7094 55647 74763 48119 53462 6879011768 36512 99097 67143 95417 44365 98017 53658 21117 53087
63 25489 11018 56474 37654 17086 53254 59081  40537 47325 10867 45365 387% 54365 43654 89017  56383 28918
64 57645 3%07 35532 49176 49081 13587 37591 44456 41101 06083 37896 45321 65984 37158 75934 51673 58901
65 36873 36576 38765 301% 54365 38715 83789 40153 26584 57435 28179 57634 01980 74689 43265 47018 38765
66 37648 15758 3%54 30166 36786 39274 41084 37111 37690 13243 56476 11809 57432 79064 48176 38906 57632
67 39067 41532 47687 94354 13879 01698 36547 49043 27876 49013 75836 39012 37598 53654 38176 692I0 84658
68 62890 47638 03131 36528 49105 64876 37776 93180 58743 43654 86018 75463 28708 75938 41705 68743 90908
69 12578 98564 58734 16905 38170 43276 79048 11532 47287 06847 00523 70749 46143 92830 14678 53961 32801
70 64325 80756 39807 64325 36890 75487 37690 64362 36547 14180 29807 44362 68190 43652 27869 53462 80179
71 75643 26890 51734 37248 93542 80756 14638 10463 53265 11901 67489 64532 69843 31694 47634 97567 14362
72 39832 40416 37694 3789: 45447 81887 38442 65902 88101 22345 65935 37411 17689 46765 32175 61453 60487
73 57854 21743 69081 11565 35432 87719 76541 47324 X9675 35765 40176 34265 96543 MOB 56321   69601 43257
74 48901 54326 81517 04050 57344 76891 35654 77161 44333 38176 54327 00918 87889 65431 36776 43259 67665
75 55678 54325 011718 58991 65432 78698 5555641611 50009 56464 47181 63245 89167 46532 89074 35678 17564
76 23564 11768 57643 33678 01432 59801 53246 61518 56548 77168 94536 33432 50019 89117 64532 37891 07543
77 65743 38817 46789 54143 36573 P891 44183  25408 56342 69875 41167 32435 17001 57648 51613 65432 96017
78 87658 56655 61143 38917 62433 71505 74387 57814 47901 36754 37222 87645 87156 57643 27C61 68543 47664
79 79414 34512 43543 61767 35654 69818 33103 41515 36556 48976 20164 33456 81171 22345 79854 48901 44325
80 47891 63465 317 17 58937 43254 10118 76584376%  54634 47817 67453 74532 39710 28143 66574 37819 64352
8I 11795 47864 13342 36787 61325 81076 47632 37865 14435 37652 28971 05714 74359 05472 27685 47311 92031
82 44589 14532 58718 66754 41132 37815 10018 46327 49147 64553 28179 66786 49043 66545 79285 10108 79542
83 91205 35645 86117 43564 77676 44352 48918 65743 398 1744554 71411 59053 01063 04732 67785 49134 33586
84 17287 48156 87549 01345 74932 48170, 5871453276 85405 76137 39015 64362 48790 74352 57814 576% 21709
85 56791 56325 79016 64365 28165 38433 5903? 36785 05308 68435 68432 98543 01389 43251 80574 24554 45217
86 48901 54312 38643 26715 8 3590 53724 6714538871 85463 38791 64352 67 154 48764 03132 3789615436 49470
87 04532 76154 47887 50143 36784 31303 63482 38176 11045 55463 75935 31210 47632 V7896 44175 69315 63621
88 47861 40435 63224 75936 34563 58071 64583 26410 38870 53472 39283 54665 16117 41534 86514 38719 65447
89 26743 05413 81388 48919 68453 35161 05893 21534 87659 48903 54632 27781 63643 39817 34670 54632 21906
90 37876 51435 38917 44564 41382 16854 07543 33478 /3832 70546 40436 41278 99161 55654 50814 36781 66583
91 55843 66342 41808 74352 37887 69043 51532 77817 59081 54654 39283 13904 65661 55414 37543 85479 43443
92 43431 76538 15736 40143 38926 15031 00598 60575 48912 22437 60073 83542 04879 15901 47891 54327 84%2
93 64372 38179 50743 36891 55463 31389 05342 12879 05634 13887 65743 30129 48301 86549 37614 35876 43624
94 06859 45732 47158 95064 36781 74364 38987 10119 66170 I3856 57452 59382 31010 13528 55564 56657 18445
95 24687 50578 05392 56476 47801 83641 99191 50010 43853 28645 99018 57354 27819 17054 64545 12564 40456
96 37165 49E134 31742 46765 01091 71478 8436751367 83324 10181 57435 90453 33633 51515 83754 28795 75479
97 16574 37608 74325 68159 05473 37218 66675 80503 51070 69615 36271 99854 42805 61585 65778 90154 36836
98 99156 41743 35462 38071 64573 87645 83801 78356 77143 65881 48901 46534 86891 11107 58455 64180 36752
99 78914 46398 75601 75436 38291 60843 68634 31689 58532 88178 91490 61557 38791 01465 44632 80745 58164