            00           0I           02           03           04           05           06           07           08
            17           18           19           20           21           22           23           24           25
            34           35           36           37           38           39           40           41           42
                         52           53           54           55           56           57           58           59
            68           69           70           71           72           73           74           75           76
            85           86           87           88           89           90           91           92           93

50 74519 64370 16874 37890 87436 29018 69014 36543 23890
51 49018 68746 48107 90684 26571 79014 44748 71113 30181
52 75771 80591 57548 44362 58149 58793 22681 90476 43256
53 38179 16483 21089 65743 37169 90184 46537 44657 55719
54 13784 87905 33457 61839 01261 89574 57637 18017 98072
55 68148 77658 40128 70564 51937 44657 71819 79043 25675
56 14703 65743 27819 IOIOI 71818 66564 48908 47523 68906
57 64781 54653 27816 66874 48084 76548 33684 17180 89156
58 13526 78765 44819 15747 31579 90243 57375 65657 68819
59 51747 85372 35781 90817 54637 55781 68749 14890 98435
60 92571 90745 57638 48906 44352 56781 81112 57434 16154
61 11875 24235 78169 66574 58197 54634 81974 35679 00135
62 67548 66678 14846 47321 88910 01967 44543 35675 88179
63 15895 14763 26718 90154 36715 55768 17176 45643 38901
64 25618 15854 35661 98017 65743 35671 88786 46532 91802
65 37816 54550 00105 56554 35891 76573 24222 16769 47781
66 4718q 16754 36718 90856 46537 68158 65473 27810 95436
67 86891 01675 36781 14673 35671 98081 67547 33467 90823
68 11765 46758 86546 67891 88189 65747 44573 37332 57180
69 22435 77816 85954 35671 00164 35463 25781 98546 36718
70 86881 76543 46574 68190 79654 35136 67420 46745 65735
71 17965 44543 36718 78546 36547 77819 78654 34325 76875
72 44546 71801 89654 35657 58179 55654 46743 25674 57091
73 16890 17674 36781 01018 78190 68783 36892 36576 46819
74 25671 89065 44543 36718 81445 54654 37180 81546 55181
75 13786 44089 71618 65743 37819 77563 21819 01801 68754
76 85694 35417 56543 37819 90191 75114 68743 37891 00181
77 78563 36819 57648 67665 59108 46532 29031 71717 76768
78 11761 67543 48161 69043 37684 27158 11018 69546 47463
79 57649 81749 04036 51732 47778 71715 97531 46390 00856
80 15874 14674 55654 37168 88176 55463 36718 90581 66574
81 26890 17685 55658 10464 48717 55658 74352 38160 85641
82 14805 36781 85564 47618 69108 75463 37879 15156 36902
83 26148 13696 13542 77176 47819 05637 55647 25891 22730
84 14781 65743 38190 66768 65748 71504 84562 26817 90141
85 57481 15763 44690 15143 34326 81479 01081 77660 74737
86 14704 55643 58901 76854 35781 93954 21670 88179 65743
87 47819 66531 42718 90818 68065 40537 81483 57122 33358
88 13780 81654 37681 94632 27180 77181 76584 38901 67543
89 47381 08453 27817 58904 76856 77787 48443 58037 64873
90 56864 33542 24019 81542 15115 48817 73428 90318 75879
91 00547 76854 34151 58916 57554 36174 66893 15432 98643
92 13780 85464 26109 77675 47819 76775 15113 36758 47932
93 06185 47685 44743 37853 40054 37176 55737 81719 65743
94 88695 65473 37173 27823 66566 80716 44352 47815 46329
95 17907 56754 47817 57654 37891 18765 07008 58065 40925
96 67541 17869 16754 46518 78654 38714 34543 24324 70780
97 56474 48791 67584 53638 18265 68191 17056 65745 99817
98 15785 46536 98757 51713 61474 37819 09354 36573 44618
99 45443 37817 78770 00168 67563 71611 94505 66574 31006